R Course: Data manipulation and plotting
…
##  [1] "SampleID"       "Treatment"      "Amendment_Type" "Dose"          
##  [5] "pH"             "EC"             "WC"             "AN"            
##  [9] "Phosphate"      "Potassium"

# pH column
Exp$pH

##  [1] 8.198 8.216 8.251 8.290 8.318 8.273 8.274 8.305 8.364 8.127 8.177 8.089
## [13] 8.262 8.242 8.244 8.121 8.232 8.216 8.146 8.329 8.392 8.226 8.306 8.247
## [25] 8.153 8.368 8.114 8.187 8.127 8.157

Exp[,7]

## # A tibble: 30 x 1
##       WC
##    <dbl>
##  1  25.6
##  2  26.1
##  3  23.7
##  4  25.1
##  5  24.7
##  6  23.6
##  7  23.7
##  8  25.5
##  9  25.9
## 10  25.7
## # ... with 20 more rows
…
